Exploratory Data Analysis
…
summarize(Q2D, SEmean=mean(SE_Grade), HSEmean=mean(HSE_Grade), UGmean=mean(UG_Grade), MBAmean=mean(MBA_Grade))

## `summarise()` ungrouping output (override with `.groups` argument)

## # A tibble: 46 x 5
##    Salary SEmean HSEmean UGmean MBAmean
##     <dbl>  <dbl>   <dbl>  <dbl>   <dbl>
##  1 200000   75.1    74.3   74.6    67.1
##  2 204000   68.5    63     57.5    57.4
##  3 210000   75.8    67.8   72.6    65.7
##  4 216000   69.7    65     66.7    60.8
##  5 218000   70.8    85.4   65.4    64.2
##  6 220000   65.5    66.5   61.8    55.9
##  7 225000   67      63     72      60.4
##  8 230000   63.4    69.7   69.0    61.9
##  9 231000   73      79     72      61.3
## 10 233000   62      63     66      55.1
## #  with 36 more rows
…
